Function for writing actions of a HMDP model to binary files. The function defines sub-functions which can be used to define actions saved in a set of binary files. It is assumed that the states have 
…
#>  4     3 0,0,0,1,1 C1   
#>  5     4 0,0,0,2,0 C0   
#>  6     5 0,0,0,2,1 C1   
#>  7     6 0,0,1,0,0 D    
#>  8     7 0,0,1,1,0 C0   
#>  9     8 0,0,1,2,0 C0   
#> 10     9 0,0,1,2,1 C1   
#> 11    10 0,1       M1   
#> 12    11 0,1,0,0,0 D    
#> 13    12 0,1,0,1,0 C0   
#> 14    13 0,1,0,1,1 C1   
#> 15    14 0,1,0,2,0 C0   
#> 16    15 0,1,0,2,1 C1   
getBinInfoActions()
#> # A tibble: 21 × 9
#>      aId   sId scope index pr      Duration `Net reward` Items label
#>    <dbl> <int> <chr> <chr> <chr>      <dbl>        <dbl> <dbl> <chr>
#>  1     0     0 2     0     1              0            0     0 A0   
#>  2     1     1 1,1   0,1   0.5,0.5        0            0     1 A0   
#>  3     2     2 1     0     1              0            0     0 A0   
#>  4     3     2 1,1   0,1   0.5,0.5        1            2     1 A1   
#>  5     4     3 1     0     1              0            0     0 A0   
#>  6     5     3 1,1   0,1   0.5,0.5        1            2     1 A1   
#>  7     6     4 0     0     1              1            4     0 A0   
#>  8     7     5 0     0     1              1            4     0 A0   
#>  9     8     0 2     0     1              0            0     0 A1   
#> 10     9     6 1     0     1              0            0     1 A0   
#> # ℹ 11 more rows
…
