Perform value iteration on the MDP. — runValueIte • MDP2
…
#>  4     3 4,3      replaced    <NULL>    
#>  5     4 3,0      good        <list [2]>
#>  6     5 3,1      average     <list [2]>
#>  7     6 3,2      not working <list [2]>
#>  8     7 3,3      replaced    <list [1]>
#>  9     8 2,0      good        <list [2]>
#> 10     9 2,1      average     <list [2]>
#> 11    10 2,2      not working <list [2]>
#> 12    11 1,0      good        <list [2]>
#> 13    12 1,1      average     <list [2]>
#> 14    13 0,0      Dummy       <list [1]>
#> 
getInfo(mdp, withList = FALSE, dfLevel = "action", asStringsActions = TRUE)
#> $df
#> # A tibble: 22 × 8
#>      sId stateStr label        aIdx label_action weights trans pr     
#>    <dbl> <chr>    <chr>       <dbl> <chr>        <chr>   <chr> <chr>  
#>  1     0 4,0      good           NA NA           NA      NA    NA     
#>  2     1 4,1      average        NA NA           NA      NA    NA     
#>  3     2 4,2      not working    NA NA           NA      NA    NA     
#>  4     3 4,3      replaced       NA NA           NA      NA    NA     
#>  5     4 3,0      good            0 mt           55      0     1      
#>  6     4 3,0      good            1 nmt          70      0,1   0.2,0.8
#>  7     5 3,1      average         0 mt           40      0     1      
#>  8     5 3,1      average         1 nmt          50      1,2   0.2,0.8
#>  9     6 3,2      not working     0 mt           30      0     1      
#> 10     6 3,2      not working     1 rep          5       3     1      
#> # … with 12 more rows
…
#>  3     2 4,1      average     <list [1]>
#>  4     3 4,2      not working <list [1]>
#>  5     4 3,0      good        <list [2]>
#>  6     5 3,1      average     <list [2]>
#>  7     6 3,2      not working <list [2]>
#>  8     7 2,0      good        <list [2]>
#>  9     8 2,1      average     <list [2]>
#> 10     9 2,2      not working <list [2]>
#> 11    10 1,0      good        <list [2]>
#> 12    11 1,1      average     <list [2]>
#> 13    12 0,0      Dummy       <list [1]>
#> 
getInfo(mdp, withList = FALSE, dfLevel = "action", asStringsActions = TRUE)
#> $df
#> # A tibble: 21 × 8
#>      sId stateStr label        aIdx label_action weights trans pr     
#>    <dbl> <chr>    <chr>       <dbl> <chr>        <chr>   <chr> <chr>  
#>  1     0 5,0      Dummy          NA NA           NA      NA    NA     
#>  2     1 4,0      good            0 rep          30      0     1      
#>  3     2 4,1      average         0 rep          10      0     1      
#>  4     3 4,2      not working     0 rep          5       0     1      
#>  5     4 3,0      good            0 mt           55      1     1      
#>  6     4 3,0      good            1 nmt          70      1,2   0.2,0.8
#>  7     5 3,1      average         0 mt           40      1     1      
#>  8     5 3,1      average         1 nmt          50      2,3   0.2,0.8
#>  9     6 3,2      not working     0 mt           30      1     1      
#> 10     6 3,2      not working     1 rep          5       0     1      
#> # … with 11 more rows
…
