Building an MDP model • MDP2
…
library(magrittr)
cowDf <- readr::read_csv("vignette_files/cow.csv")

#> Rows: 66 Columns: 16
#> ── Column specification ──────────────────────────────────────────────────────────────────
#> Delimiter: ","
#> chr  (1): label
#> dbl (15): s0, n1, s1, Duration, Reward, Output, scp0, idx0, pr0, scp1, idx1, pr1, scp2...
#> 
#> ℹ Use `spec()` to retrieve the full column specification for this data.
#> ℹ Specify the column types or set `show_col_types = FALSE` to quiet this message.

cowDf

#> # A tibble: 66 × 16
#>       s0    n1    s1 label   Duration Reward Output  scp0  idx0   pr0  scp1  idx1   pr1
#>    <dbl> <dbl> <dbl> <chr>      <dbl>  <dbl>  <dbl> <dbl> <dbl> <dbl> <dbl> <dbl> <dbl>
#>  1     0     0     0 Dummy          0      0      0     1     0 0.333     1     1 0.333
#>  2     0     1     0 Keep           1   6000   3000     1     0 0.6       1     1 0.3  
#>  3     0     1     0 Replace        1   5000   3000     0     0 0.333     0     1 0.333
#>  4     0     1     1 Keep           1   8000   4000     1     0 0.2       1     1 0.6  
#>  5     0     1     1 Replace        1   7000   4000     0     0 0.333     0     1 0.333
#>  6     0     1     2 Keep           1  10000   5000     1     0 0.1       1     1 0.3  
#>  7     0     1     2 Replace        1   9000   5000     0     0 0.333     0     1 0.333
#>  8     0     2     0 Keep           1   8000   4000     1     0 0.6       1     1 0.3  
#>  9     0     2     0 Replace        1   7000   4000     0     0 0.333     0     1 0.333
#> 10     0     2     1 Keep           1  10000   5000     1     0 0.2       1     1 0.6  
#> # ℹ 56 more rows
#> # ℹ 3 more variables: scp2 <dbl>, idx2 <dbl>, pr2 <dbl>
…
