An infinite-horizon HMDP • MDP2
…
wLbl<-"Net reward"         # the weight we want to optimize (net reward)
durLbl<-"Duration"         # the duration/time label
runPolicyIteAve(mdp, wLbl, durLbl)

#> Run policy iteration under average reward criterion using 
#> reward 'Net reward' over 'Duration'. Iterations (g): 
#> 1 (11000) 2 (11517.5) 3 (11543.8) 4 (11543.8) finished. Cpu time: 4.92e-06 sec.

#> [1] 11543.83

getPolicy(mdp)

#> # A tibble: 42 × 6
#>      sId stateStr  stateLabel  aIdx actionLabel  weight
#>    <dbl> <chr>     <chr>      <int> <chr>         <dbl>
#>  1     3 0,2,0,4,0 Low yield      0 Replace     -7369. 
#>  2     4 0,2,0,4,1 Avg yield      0 Replace     -5369. 
#>  3     5 0,2,0,4,2 High yield     0 Replace     -3369. 
#>  4     6 0,2,0,3,0 Low yield      0 Keep        -5912. 
#>  5     7 0,2,0,3,1 Avg yield      0 Keep        -2912. 
#>  6     8 0,2,0,3,2 High yield     0 Keep           87.7
#>  7     9 0,2,0,2,0 Low yield      0 Keep        -3956. 
#>  8    10 0,2,0,2,1 Avg yield      0 Keep         -456. 
#>  9    11 0,2,0,2,2 High yield     0 Keep         3044. 
#> 10    12 0,2,0,1,0 Low yield      0 Keep        -3750  
#> # ℹ 32 more rows
…
